Draft
…
  clickbait_cats = bind_rows(US_cats, FR_cats, GB_cats, MX_cats, CA_cats)
  
  return(clickbait_cats)
}

clickbait_cats = bind_clickbait_cats() 
clickbait_cats

## # A tibble: 79 x 5
##    category_id     n n_clickbait p_clickbait country
##    <chr>       <int>       <int>       <dbl> <chr>  
##  1 1            2337         233      0.0997 US     
##  2 10           6435         681      0.106  US     
##  3 15            916         202      0.221  US     
##  4 17           2125         399      0.188  US     
##  5 19            402         150      0.373  US     
##  6 2             379          66      0.174  US     
##  7 20            803         249      0.310  US     
##  8 22           3061         754      0.246  US     
##  9 23           3432         648      0.189  US     
## 10 24           9819        2249      0.229  US     
## #  with 69 more rows
…
